<svg width="19" height="24" viewBox="0 0 19 24" fill="none" xmlns="http://www.w3.org/2000/svg">
<path d="M18.2304 2.91647H0.728768L0 0H18.9592L18.2304 2.91647Z" fill="currentColor"/>
<path d="M1.45801 4.375V23.3356H8.02112V18.9602H10.9376V23.3356H17.5007L17.5021 4.375H1.45801ZM6.56358 17.5012H3.64711V14.5847H6.56358V17.5012ZM6.56358 13.1258H3.64711V10.2093H6.56358V13.1258ZM6.56358 8.75041H3.64711V5.83394H6.56358V8.75041ZM10.939 17.5012H8.02252V14.5847H10.939V17.5012ZM10.939 13.1258H8.02252V10.2093H10.939V13.1258ZM10.939 8.75041H8.02252V5.83394H10.939V8.75041ZM15.3144 17.5012H12.3979V14.5847H15.3144V17.5012ZM15.3144 13.1258H12.3979V10.2093H15.3144V13.1258ZM15.3144 8.75041H12.3979V5.83394H15.3144V8.75041Z" fill="currentColor"/>
</svg>
