<svg width="25" height="29" viewBox="0 0 25 29" fill="none" xmlns="http://www.w3.org/2000/svg">
<path fill-rule="evenodd" clip-rule="evenodd" d="M24.9893 6.59461C24.9893 4.49899 23.7539 2.73303 22.0779 2.19917V3.55536C22.0779 4.81453 21.1877 5.83871 20.0933 5.83871H19.5972C18.5027 5.83871 17.6126 4.81453 17.6126 3.55536V2.03058L7.37672 2.0293V3.55409C7.37672 4.81325 6.48655 5.83743 5.39213 5.83743H4.89597C3.80155 5.83743 2.91138 4.81325 2.91138 3.55409V2.19916C1.23536 2.73296 0 4.49912 0 6.59461V23.8462C0 26.3632 1.78035 28.4116 3.96812 28.4116H21.0215C23.2092 28.4116 24.9896 26.3633 24.9896 23.8462L24.9885 6.59461H24.9893ZM23.2048 23.8948C23.2048 25.2655 22.2168 26.381 21.003 26.381L3.98683 26.3823C2.77299 26.3823 1.78507 25.2667 1.78507 23.8961V10.147H23.2047L23.2048 23.8948Z" fill="currentColor"/>
<path fill-rule="evenodd" clip-rule="evenodd" d="M5.25912 5.07353C5.8831 5.07353 6.39063 4.53203 6.39063 3.86621L6.39164 1.20732C6.39164 0.541525 5.88313 0 5.25912 0H4.80631C4.18233 0 3.6748 0.541497 3.6748 1.20732V3.86514C3.6748 4.53093 4.1823 5.07245 4.80631 5.07245L5.25912 5.07353Z" fill="currentColor"/>
<path fill-rule="evenodd" clip-rule="evenodd" d="M19.9599 5.07353C20.5841 5.07353 21.0918 4.53203 21.0918 3.86621V1.20732C21.0918 0.541525 20.5841 0 19.9599 0H19.5069C18.8827 0 18.375 0.541497 18.375 1.20732V3.86514C18.375 4.53093 18.8827 5.07245 19.5069 5.07245L19.9599 5.07353Z" fill="currentColor"/>
<path fill-rule="evenodd" clip-rule="evenodd" d="M4.04199 11.5293H7.66444V14.5734H4.04199V11.5293Z" fill="currentColor"/>
<path fill-rule="evenodd" clip-rule="evenodd" d="M8.57031 11.5293H12.1928V14.5734H8.57031V11.5293Z" fill="currentColor"/>
<path fill-rule="evenodd" clip-rule="evenodd" d="M13.0986 11.5293H16.7211V14.5734H13.0986V11.5293Z" fill="currentColor"/>
<path fill-rule="evenodd" clip-rule="evenodd" d="M17.627 11.5293H21.2494V14.5734H17.627V11.5293Z" fill="currentColor"/>
<path fill-rule="evenodd" clip-rule="evenodd" d="M4.04199 16.6035H7.66444V19.6476H4.04199V16.6035Z" fill="currentColor"/>
<path fill-rule="evenodd" clip-rule="evenodd" d="M8.57031 16.6035H12.1928V19.6476H8.57031V16.6035Z" fill="currentColor"/>
<path fill-rule="evenodd" clip-rule="evenodd" d="M13.0986 16.6035H16.7211V19.6476H13.0986V16.6035Z" fill="currentColor"/>
<path fill-rule="evenodd" clip-rule="evenodd" d="M17.627 16.6035H21.2494V19.6476H17.627V16.6035Z" fill="currentColor"/>
<path fill-rule="evenodd" clip-rule="evenodd" d="M4.04199 21.6758H7.66444V24.7199H4.04199V21.6758Z" fill="currentColor"/>
<path fill-rule="evenodd" clip-rule="evenodd" d="M8.57031 21.6758H12.1928V24.7199H8.57031V21.6758Z" fill="currentColor"/>
<path fill-rule="evenodd" clip-rule="evenodd" d="M13.0986 21.6758H16.7211V24.7199H13.0986V21.6758Z" fill="currentColor"/>
<path fill-rule="evenodd" clip-rule="evenodd" d="M17.627 21.6758H21.2494V24.7199H17.627V21.6758Z" fill="currentColor"/>
</svg>
