<svg width="74" height="95" viewBox="0 0 74 95" fill="none" xmlns="http://www.w3.org/2000/svg">
<path d="M13.8581 52.1015L8.95974 73.4025C8.35818 75.9025 9.95974 78.5041 12.4597 79.0041C12.8582 79.1057 13.159 79.1057 13.5613 79.1057C15.6629 79.1057 17.6629 77.6057 18.1629 75.4065L22.8582 54.8985L14.0574 52.0977C14.0574 52.1016 13.9598 52.1016 13.8582 52.1016L13.8581 52.1015Z" fill="currentColor"/>
<path d="M7.6589 36.8006L9.85809 29.3006L14.0573 27.3006L12.5573 42.4026C12.3581 44.6018 13.6589 46.7034 15.8581 47.4026L28.8581 51.5042L29.0573 65.0042C29.0573 67.6058 31.1589 69.7034 33.7565 69.7034H33.8581C36.4597 69.7034 38.5573 67.5042 38.5573 64.9026L38.2565 48.0046C38.2565 46.0046 36.8581 44.2038 34.9557 43.6062L26.6549 41.0046L29.0533 30.6066L33.0533 35.7082C34.0533 36.9074 35.6549 37.509 37.1549 37.1066L46.1549 34.8058C48.2565 34.3058 49.5533 32.1066 48.9557 30.005C48.4557 27.9034 46.2565 26.6066 44.1549 27.2042L37.6549 28.9034L32.7565 22.505C32.5573 22.3057 32.4557 22.1065 32.2565 22.005C30.9557 20.8058 29.3581 20.005 27.6549 19.7042L20.2565 18.1026C18.0573 17.6026 15.7565 17.9033 13.7565 18.9033L4.95569 23.1025C3.95569 23.6025 3.15489 24.5009 2.85409 25.6025L0.154894 34.8017C-0.446666 36.9033 0.756454 39.1025 2.85409 39.7001C3.25253 39.8017 3.55331 39.8994 3.95569 39.8994C5.55729 39.6025 7.15879 38.501 7.65879 36.8017L7.6589 36.8006Z" fill="currentColor"/>
<path d="M71.2559 58.6022L55.2559 52.8014C53.2559 52.1022 50.955 53.1022 50.2558 55.1998C49.5566 57.1998 50.5566 59.5006 52.6543 60.1998L59.7559 62.8014L6.45885 87.5004C4.45885 88.3989 3.65805 90.8012 4.56045 92.6996C5.25967 94.098 6.66205 95.0004 8.16205 95.0004C8.76361 95.0004 9.26365 94.8989 9.86125 94.602L62.9632 69.801L60.3616 76.9026C59.6624 78.9026 60.6624 81.2034 62.76 81.9026C63.1585 82.1018 63.6585 82.1018 64.0609 82.1018C65.6625 82.1018 67.1624 81.1018 67.76 79.5002L73.5609 63.5002C74.3577 61.6018 73.2562 59.301 71.2561 58.6018L71.2559 58.6022Z" fill="currentColor"/>
<path d="M35.2559 8.3008C35.2559 12.8828 31.5411 16.6016 26.959 16.6016C22.3731 16.6016 18.6582 12.8828 18.6582 8.3008C18.6582 3.7149 22.373 0 26.959 0C31.541 0 35.2559 3.7148 35.2559 8.3008Z" fill="currentColor"/>
</svg>
