<svg xmlns="http://www.w3.org/2000/svg" width="200" height="200" fill="currentColor" viewBox="0 0 200 200">
  <path fill-rule="evenodd" d="M93.837 27.432c-.993 2.565-1.3 8.633-.729 14.405l.986 9.973-15.282 12.215c-8.405 6.72-15.282 13.262-15.282 14.542 0 1.811-3.095 2.427-14.044 2.79l-14.044.465-5.968 11.28c-6.85 12.947-7.34 16.126-2.86 18.534 3.01 1.618 3.21 3.375 3.21 28.147 0 26.137-.038 26.427-3.595 26.936-4.127.592-5.602 5.213-2.76 8.651 2.898 3.507 149.449 3.507 152.347 0 2.644-3.199.554-8.941-3.253-8.941-2.94 0-3.103-1.383-3.103-26.534 0-24.884.199-26.641 3.21-28.259 4.48-2.408 3.991-5.587-2.86-18.533l-5.967-11.281-14.044-.466c-10.428-.345-14.044-1.02-14.044-2.622 0-1.186-7.004-7.866-15.564-14.844l-15.565-12.688 8.303-.846c10.338-1.055 12.864-3.247 10.657-9.248-1.061-2.885-1.085-5.91-.067-8.745 2.638-7.361-.628-9.363-15.285-9.363-12.35 0-12.728.116-14.397 4.432Zm14.633 8.46c0 .887-.722 1.612-1.605 1.612a1.613 1.613 0 0 1 0-3.223c.883 0 1.605.725 1.605 1.611Zm3.295 36.443 11.15 9.044v41.72c0 36.009-.329 41.718-2.407 41.718-1.875 0-2.408-2.161-2.408-9.775 0-15.397-.697-16.01-18.193-16.01-9.426 0-15.575.708-16.796 1.934-1.12 1.125-1.926 6.517-1.926 12.893 0 8.667-.504 10.958-2.408 10.958-2.067 0-2.441-5.569-2.648-39.483-.132-21.716-.313-40.344-.401-41.398-.16-1.893 21.11-20.438 23.598-20.576.71-.039 6.308 4 12.439 8.975Zm-21.067 8.317c-7.122 6.39-7.505 15.028-.917 20.718 9.747 8.419 23.504 2.374 23.504-10.33 0-7.307-4.634-12.646-12.312-14.188-4.003-.804-5.942-.087-10.275 3.8Zm11.044 10.154c-.317.953-1.26 1.733-2.1 1.733-.84 0-1.783-.78-2.099-1.733-.316-.952.627-1.732 2.1-1.732 1.471 0 2.415.78 2.099 1.733Zm-38.213 5.52c0 3.939-.268 4.029-12.037 4.029-6.62 0-12.038-.411-12.038-.912 0-.501.748-2.314 1.661-4.03 1.38-2.587 3.422-3.116 12.038-3.116 9.998 0 10.377.147 10.377 4.03Zm94.404 0 1.828 4.029h-12.002c-11.734 0-12.004-.09-12.004-4.029 0-3.874.392-4.029 10.174-4.029 9.297 0 10.333.348 12.004 4.03ZM63.53 139.032v25.785H41.058v-51.57H63.53v25.785Zm93.09 0v25.785h-20.865v-51.57h20.865v25.785Zm-71.309-21.641c-3.244 3.257-3.244 11.018 0 14.275 3.24 3.251 4.415 3.186 7.662-.416 3.509-3.892 3.376-10.402-.279-13.724-3.62-3.291-4.227-3.302-7.383-.135Zm20.865 0c-3.243 3.257-3.243 11.018 0 14.275 3.239 3.251 4.416 3.186 7.663-.416 3.508-3.892 3.375-10.402-.28-13.724-3.621-3.291-4.227-3.302-7.383-.135Zm36.906 2.833c-1.963 1.441-2.598 3.787-2.228 8.235 1.016 12.187 10.951 11.418 10.951-.848 0-7.279-4.12-10.768-8.723-7.387Zm-94.458.47c-2.178 2.187-1.178 13.082 1.398 15.228 4.33 3.607 7.89-.158 7.89-8.346 0-6.377-.403-7.123-4.072-7.554-2.24-.262-4.589.041-5.216.672Zm-.074 22.636c-.59.59-1.07 4.239-1.07 8.108 0 7.6 3.018 10.461 7.841 7.43 3.2-2.01 4.29-11.169 1.702-14.3-1.994-2.412-6.63-3.089-8.473-1.238Zm93.712 1.238c-2.589 3.131-1.499 12.29 1.701 14.3 1.425.896 3.772 1.173 5.216.617 3.641-1.404 3.713-14.854.087-16.251-3.744-1.444-4.889-1.225-7.004 1.334Zm-37.002 12.997c0 7.214-.031 7.252-5.618 7.252-5.587 0-5.617-.038-5.617-7.252 0-7.213.03-7.252 5.617-7.252s5.618.039 5.618 7.252Z" clip-rule="evenodd"/>
</svg>
