<svg width="1995" height="1380" viewBox="0 0 1995 1380" fill="none" xmlns="http://www.w3.org/2000/svg">
<path d="M1041.29 1377.66L632.153 1370.18C499.684 1367.57 366.885 1372.78 237.013 1345.77C39.4484 1305.41 25.4522 1107.51 10.8067 941.515C-9.3734 708.146 -1.5611 470.54 36.5213 239.119C58.02 109.267 142.626 31.7839 273.467 23.3522C715.151 -7.24758 1159.77 -3.62119 1600.48 10.6547C1647.02 11.9634 1693.88 19.1163 1739.78 27.2583C1966.32 66.9691 1971.85 291.228 1986.53 480.011C2001.18 670.743 1995 862.453 1967 1051.89C1944.55 1208.73 1901.58 1340.26 1720.25 1352.96C1493.05 1369.56 1271.07 1382.93 1043.24 1378.67C1043.25 1377.66 1041.94 1377.66 1041.29 1377.66ZM800.756 980.577C971.967 882.274 1139.91 785.609 1310.14 687.966C1138.61 589.663 970.988 492.998 800.756 395.355V980.577Z" fill="currentColor"/>
</svg>
